ALU/Implementacion/Test/fa_tb.vcd
$date
	Mon Oct 31 15:01:11 2022
$end
$version
	Icarus Verilog
$end
$timescale
	10ps
$end
$scope module fa_tb $end
$var wire 1 ! test_sum $end
$var wire 1 " test_out $end
$var reg 1 # test_a $end
$var reg 1 $ test_b $end
$var reg 1 % test_cin $end
$scope module fa $end
$var wire 1 # a $end
$var wire 1 $ b $end
$var wire 1 % c_in $end
$var wire 1 ! sum $end
$var wire 1 " c_out $end
$upscope $end
$upscope $end
$enddefinitions $end
#0
$dumpvars
0%
0$
0#
0"
0!
$end
#2000
1!
1$
#4000
0$
1#
#6000
0!
1"
1$
#8000
0"
1!
0$
0#
1%
#10000
0!
1"
1$
#12000
0$
1#
#14000
1!
1$
